<?xml version="1.0" encoding="UTF-8" standalone="no"?>
<!-- Created with Inkscape (http://www.inkscape.org/) -->

<svg
   xmlns:dc="http://purl.org/dc/elements/1.1/"
   xmlns:cc="http://creativecommons.org/ns#"
   xmlns:rdf="http://www.w3.org/1999/02/22-rdf-syntax-ns#"
   xmlns:svg="http://www.w3.org/2000/svg"
   xmlns="http://www.w3.org/2000/svg"
   xmlns:sodipodi="http://sodipodi.sourceforge.net/DTD/sodipodi-0.dtd"
   xmlns:inkscape="http://www.inkscape.org/namespaces/inkscape"
   width="56.44445mm"
   height="56.44445mm"
   viewBox="0 0 200.00002 200.00002"
   id="svg6085"
   version="1.1"
   inkscape:version="0.91 r13725"
   sodipodi:docname="website.svg">
  <defs
     id="defs6087" />
  <sodipodi:namedview
     id="base"
     pagecolor="#ffffff"
     bordercolor="#666666"
     borderopacity="1.0"
     inkscape:pageopacity="0.0"
     inkscape:pageshadow="2"
     inkscape:zoom="1.979899"
     inkscape:cx="40.688344"
     inkscape:cy="173.55041"
     inkscape:document-units="px"
     inkscape:current-layer="layer1"
     showgrid="false"
     fit-margin-top="0"
     fit-margin-left="0"
     fit-margin-right="0"
     fit-margin-bottom="0"
     inkscape:window-width="1920"
     inkscape:window-height="1001"
     inkscape:window-x="-9"
     inkscape:window-y="-9"
     inkscape:window-maximized="1" />
  <metadata
     id="metadata6090">
    <rdf:RDF>
      <cc:Work
         rdf:about="">
        <dc:format>image/svg+xml</dc:format>
        <dc:type
           rdf:resource="http://purl.org/dc/dcmitype/StillImage" />
        <dc:title></dc:title>
      </cc:Work>
    </rdf:RDF>
  </metadata>
  <g
     inkscape:label="Laag 1"
     inkscape:groupmode="layer"
     id="layer1"
     transform="translate(13.849883,-786.25666)">
    <g
       transform="translate(142.4516,490.51392)"
       id="g4641">
      <rect
         style="opacity:1;fill:#f9f9f9;fill-opacity:1;stroke:none;stroke-width:2;stroke-linejoin:round;stroke-miterlimit:4;stroke-dasharray:none;stroke-opacity:1"
         id="rect5870"
         width="200"
         height="200"
         x="-156.30148"
         y="295.74274" />
      <g
         id="g4615">
        <rect
           ry="0"
           y="342.23218"
           x="-102.80997"
           height="93.016998"
           width="93.016998"
           id="rect5872"
           style="opacity:1;fill:#000000;fill-opacity:1;stroke:none;stroke-width:2;stroke-linejoin:round;stroke-miterlimit:4;stroke-dasharray:none;stroke-opacity:1" />
        <rect
           ry="0"
           y="365.74707"
           x="-98.137138"
           height="61.512295"
           width="82.959854"
           id="rect5874"
           style="opacity:1;fill:#f9f9f9;fill-opacity:1;stroke:none;stroke-width:2;stroke-linejoin:round;stroke-miterlimit:4;stroke-dasharray:none;stroke-opacity:1" />
        <rect
           y="350.41205"
           x="-98.06443"
           height="7.0113316"
           width="70.814445"
           id="rect5876"
           style="opacity:1;fill:#f9f9f9;fill-opacity:1;stroke:none;stroke-width:2;stroke-linejoin:round;stroke-miterlimit:4;stroke-dasharray:none;stroke-opacity:1" />
        <g
           id="g5952"
           transform="translate(-256.12443,-234.76178)"
           style="fill:#f9f9f9;fill-opacity:1">
          <rect
             style="opacity:1;fill:#f9f9f9;fill-opacity:1;stroke:none;stroke-width:2;stroke-linejoin:round;stroke-miterlimit:4;stroke-dasharray:none;stroke-opacity:1"
             id="rect5878"
             width="3.5056658"
             height="10.283286"
             x="-247.8783"
             y="578.6073"
             transform="matrix(0.70710678,-0.70710678,0.70710678,0.70710678,0,0)" />
          <rect
             style="opacity:1;fill:#f9f9f9;fill-opacity:1;stroke:none;stroke-width:2;stroke-linejoin:round;stroke-miterlimit:4;stroke-dasharray:none;stroke-opacity:1"
             id="rect5878-0"
             width="3.5056658"
             height="10.283286"
             x="-585.50177"
             y="240.98383"
             transform="matrix(-0.70710678,-0.70710678,-0.70710678,0.70710678,0,0)" />
        </g>
        <rect
           ry="0"
           y="376.12024"
           x="-92.760399"
           height="3.5056658"
           width="71.983002"
           id="rect5920"
           style="opacity:1;fill:#000000;fill-opacity:1;stroke:none;stroke-width:2;stroke-linejoin:round;stroke-miterlimit:4;stroke-dasharray:none;stroke-opacity:1" />
        <rect
           ry="0"
           y="394.46655"
           x="-92.760399"
           height="3.5056658"
           width="71.983002"
           id="rect5920-0"
           style="opacity:1;fill:#000000;fill-opacity:1;stroke:none;stroke-width:2;stroke-linejoin:round;stroke-miterlimit:4;stroke-dasharray:none;stroke-opacity:1" />
        <rect
           ry="0"
           y="412.02179"
           x="-92.760399"
           height="3.5056658"
           width="71.983002"
           id="rect5920-8"
           style="opacity:1;fill:#000000;fill-opacity:1;stroke:none;stroke-width:2;stroke-linejoin:round;stroke-miterlimit:4;stroke-dasharray:none;stroke-opacity:1" />
      </g>
      <text
         xml:space="preserve"
         style="font-style:normal;font-weight:normal;font-size:29.74557877px;line-height:125%;font-family:sans-serif;letter-spacing:0px;word-spacing:0px;fill:#000000;fill-opacity:1;stroke:none;stroke-width:1px;stroke-linecap:butt;stroke-linejoin:miter;stroke-opacity:1"
         x="-114.86308"
         y="469.99359"
         id="text5967"
         sodipodi:linespacing="125%"><tspan
           sodipodi:role="line"
           id="tspan5969"
           x="-114.86308"
           y="469.99359">Website</tspan></text>
      <path
         inkscape:connector-curvature="0"
         style="opacity:1;fill:#00aad4;fill-opacity:1;stroke:none;stroke-width:2;stroke-linejoin:round;stroke-miterlimit:4;stroke-dasharray:none;stroke-opacity:1"
         d="m 43.617347,386.64041 -44.11651736,0 0,3.96485 44.11651736,0 0,-3.96485 z"
         id="path5184-0" />
      <ellipse
         style="opacity:1;fill:#00aad4;fill-opacity:1;stroke:none;stroke-width:2;stroke-linejoin:round;stroke-miterlimit:4;stroke-dasharray:none;stroke-opacity:1"
         id="path5155-1"
         cx="3.413326"
         cy="388.62283"
         rx="6.6852808"
         ry="6.5439095" />
      <ellipse
         ry="6.5439095"
         rx="6.6852808"
         cy="480.23755"
         cx="-56.301479"
         id="path5155-1-5"
         style="opacity:1;fill:#00aad4;fill-opacity:1;stroke:none;stroke-width:2;stroke-linejoin:round;stroke-miterlimit:4;stroke-dasharray:none;stroke-opacity:1" />
      <path
         id="path5184-0-5"
         d="m -54.319054,495.68662 0,-14.60367 -3.96485,0 0,14.60367 3.96485,0 z"
         style="opacity:1;fill:#00aad4;fill-opacity:1;stroke:none;stroke-width:2;stroke-linejoin:round;stroke-miterlimit:4;stroke-dasharray:none;stroke-opacity:1"
         inkscape:connector-curvature="0" />
    </g>
  </g>
</svg>
